com\labseni\app\KeHardware$1.class
com\labseni\app\App.class
com\labseni\app\OFDM.class
com\labseni\app\KeHardware.class
com\labseni\app\SimulasiFX.class
com\labseni\app\SwingFX.class
com\labseni\app\Muka$1.class
com\labseni\app\KonekKeServer.class
com\labseni\app\SerialTest.class
com\labseni\app\Muka.class
com\labseni\app\FFT.class
com\labseni\app\SerialTest$1.class
com\labseni\app\Obyek\StdOut.class
com\labseni\app\Obyek\Complex.class
com\labseni\app\Simulasi.class
com\labseni\app\Algoritma\Optimasi.class
